E:\EclipseNeonWorkspace_NEW\EmailNotify\core\src\main\java\org\myorg\EmailNotify\EmailNotify\core\models\HelloWorldModel.java
E:\EclipseNeonWorkspace_NEW\EmailNotify\core\src\main\java\org\myorg\EmailNotify\EmailNotify\core\package-info.java
E:\EclipseNeonWorkspace_NEW\EmailNotify\core\src\main\java\org\myorg\EmailNotify\EmailNotify\core\listeners\SimpleResourceListener.java
E:\EclipseNeonWorkspace_NEW\EmailNotify\core\src\main\java\org\myorg\EmailNotify\ServiceImpl\EmailServiceServlet.java
E:\EclipseNeonWorkspace_NEW\EmailNotify\core\src\main\java\org\myorg\EmailNotify\EmailNotify\core\filters\LoggingFilter.java
E:\EclipseNeonWorkspace_NEW\EmailNotify\core\src\main\java\org\myorg\EmailNotify\EmailNotify\core\schedulers\SimpleScheduledTask.java
E:\EclipseNeonWorkspace_NEW\EmailNotify\core\src\main\java\org\myorg\EmailNotify\EmailNotify\core\servlets\SimpleServlet.java
E:\EclipseNeonWorkspace_NEW\EmailNotify\core\src\main\java\org\myorg\EmailNotify\ServiceImpl\EmailServiceImpl.java
